%YAML 1.1
%TAG !u! tag:unity3d.com,2011:
--- !u!114 &5717596306825843494
MonoBehaviour:
  m_ObjectHideFlags: 0
  m_CorrespondingSourceObject: {fileID: 0}
  m_PrefabInstance: {fileID: 0}
  m_PrefabAsset: {fileID: 0}
  m_GameObject: {fileID: 8615557064421866631}
  m_Enabled: 1
  m_EditorHideFlags: 0
  m_Script: {fileID: 11500000, guid: 37477e44d6ec0124c8c0c626c689c3b3, type: 3}
  m_Name: 
  m_EditorClassIdentifier: 
  effect_token: {fileID: 0}
  tooltip_prefab: {fileID: 0}
  force_target_self: 0
  effect_amount: 0
  use_ap_cost_for_amount: 0
  isEndTurnEffect: 0
--- !u!1001 &4726130001175938634
PrefabInstance:
  m_ObjectHideFlags: 0
  serializedVersion: 2
  m_Modification:
    m_TransformParent: {fileID: 0}
    m_Modifications:
    - target: {fileID: 2454229856614413844, guid: c9cbb1ef5848cab439aed8148ba57305, type: 3}
      propertyPath: m_text
      value: Self
      objectReference: {fileID: 0}
    - target: {fileID: 3637880271569819221, guid: c9cbb1ef5848cab439aed8148ba57305, type: 3}
      propertyPath: m_text
      value: Draw 1 card per Worker in Swarm
      objectReference: {fileID: 0}
    - target: {fileID: 3637880271569819221, guid: c9cbb1ef5848cab439aed8148ba57305, type: 3}
      propertyPath: m_fontSize
      value: 28
      objectReference: {fileID: 0}
    - target: {fileID: 3637880271569819221, guid: c9cbb1ef5848cab439aed8148ba57305, type: 3}
      propertyPath: m_fontSizeBase
      value: 28
      objectReference: {fileID: 0}
    - target: {fileID: 3892813988556208845, guid: c9cbb1ef5848cab439aed8148ba57305, type: 3}
      propertyPath: m_Name
      value: Queen's Gambit
      objectReference: {fileID: 0}
    - target: {fileID: 4302993610070273350, guid: c9cbb1ef5848cab439aed8148ba57305, type: 3}
      propertyPath: m_Pivot.x
      value: 0.5
      objectReference: {fileID: 0}
    - target: {fileID: 4302993610070273350, guid: c9cbb1ef5848cab439aed8148ba57305, type: 3}
      propertyPath: m_Pivot.y
      value: 0.5
      objectReference: {fileID: 0}
    - target: {fileID: 4302993610070273350, guid: c9cbb1ef5848cab439aed8148ba57305, type: 3}
      propertyPath: m_RootOrder
      value: 0
      objectReference: {fileID: 0}
    - target: {fileID: 4302993610070273350, guid: c9cbb1ef5848cab439aed8148ba57305, type: 3}
      propertyPath: m_AnchorMax.x
      value: 0.5
      objectReference: {fileID: 0}
    - target: {fileID: 4302993610070273350, guid: c9cbb1ef5848cab439aed8148ba57305, type: 3}
      propertyPath: m_AnchorMax.y
      value: 0.5
      objectReference: {fileID: 0}
    - target: {fileID: 4302993610070273350, guid: c9cbb1ef5848cab439aed8148ba57305, type: 3}
      propertyPath: m_AnchorMin.x
      value: 0.5
      objectReference: {fileID: 0}
    - target: {fileID: 4302993610070273350, guid: c9cbb1ef5848cab439aed8148ba57305, type: 3}
      propertyPath: m_AnchorMin.y
      value: 0.5
      objectReference: {fileID: 0}
    - target: {fileID: 4302993610070273350, guid: c9cbb1ef5848cab439aed8148ba57305, type: 3}
      propertyPath: m_SizeDelta.x
      value: 350
      objectReference: {fileID: 0}
    - target: {fileID: 4302993610070273350, guid: c9cbb1ef5848cab439aed8148ba57305, type: 3}
      propertyPath: m_SizeDelta.y
      value: 565
      objectReference: {fileID: 0}
    - target: {fileID: 4302993610070273350, guid: c9cbb1ef5848cab439aed8148ba57305, type: 3}
      propertyPath: m_LocalPosition.x
      value: 0
      objectReference: {fileID: 0}
    - target: {fileID: 4302993610070273350, guid: c9cbb1ef5848cab439aed8148ba57305, type: 3}
      propertyPath: m_LocalPosition.y
      value: 0
      objectReference: {fileID: 0}
    - target: {fileID: 4302993610070273350, guid: c9cbb1ef5848cab439aed8148ba57305, type: 3}
      propertyPath: m_LocalPosition.z
      value: 0
      objectReference: {fileID: 0}
    - target: {fileID: 4302993610070273350, guid: c9cbb1ef5848cab439aed8148ba57305, type: 3}
      propertyPath: m_LocalRotation.w
      value: 1
      objectReference: {fileID: 0}
    - target: {fileID: 4302993610070273350, guid: c9cbb1ef5848cab439aed8148ba57305, type: 3}
      propertyPath: m_LocalRotation.x
      value: 0
      objectReference: {fileID: 0}
    - target: {fileID: 4302993610070273350, guid: c9cbb1ef5848cab439aed8148ba57305, type: 3}
      propertyPath: m_LocalRotation.y
      value: 0
      objectReference: {fileID: 0}
    - target: {fileID: 4302993610070273350, guid: c9cbb1ef5848cab439aed8148ba57305, type: 3}
      propertyPath: m_LocalRotation.z
      value: 0
      objectReference: {fileID: 0}
    - target: {fileID: 4302993610070273350, guid: c9cbb1ef5848cab439aed8148ba57305, type: 3}
      propertyPath: m_AnchoredPosition.x
      value: -716.3
      objectReference: {fileID: 0}
    - target: {fileID: 4302993610070273350, guid: c9cbb1ef5848cab439aed8148ba57305, type: 3}
      propertyPath: m_AnchoredPosition.y
      value: -461.3
      objectReference: {fileID: 0}
    - target: {fileID: 4302993610070273350, guid: c9cbb1ef5848cab439aed8148ba57305, type: 3}
      propertyPath: m_LocalEulerAnglesHint.x
      value: 0
      objectReference: {fileID: 0}
    - target: {fileID: 4302993610070273350, guid: c9cbb1ef5848cab439aed8148ba57305, type: 3}
      propertyPath: m_LocalEulerAnglesHint.y
      value: 0
      objectReference: {fileID: 0}
    - target: {fileID: 4302993610070273350, guid: c9cbb1ef5848cab439aed8148ba57305, type: 3}
      propertyPath: m_LocalEulerAnglesHint.z
      value: 0
      objectReference: {fileID: 0}
    - target: {fileID: 4375775647973514939, guid: c9cbb1ef5848cab439aed8148ba57305, type: 3}
      propertyPath: m_Sprite
      value: 
      objectReference: {fileID: 21300000, guid: 88035eacd2a951f4e9c58a1aaec8afa6, type: 3}
    - target: {fileID: 6666602212761262591, guid: c9cbb1ef5848cab439aed8148ba57305, type: 3}
      propertyPath: card_name
      value: Queen's Gambit
      objectReference: {fileID: 0}
    - target: {fileID: 6666602212761262591, guid: c9cbb1ef5848cab439aed8148ba57305, type: 3}
      propertyPath: sound_name
      value: Analysis
      objectReference: {fileID: 0}
    - target: {fileID: 6666602212761262591, guid: c9cbb1ef5848cab439aed8148ba57305, type: 3}
      propertyPath: defaultCost
      value: 1
      objectReference: {fileID: 0}
    - target: {fileID: 6666602212761262591, guid: c9cbb1ef5848cab439aed8148ba57305, type: 3}
      propertyPath: effects.Array.size
      value: 1
      objectReference: {fileID: 0}
    - target: {fileID: 6666602212761262591, guid: c9cbb1ef5848cab439aed8148ba57305, type: 3}
      propertyPath: visual_effect_prefab
      value: 
      objectReference: {fileID: 3123034477758616712, guid: 5f38bd30810704f4cbbd145e106dc540, type: 3}
    - target: {fileID: 6666602212761262591, guid: c9cbb1ef5848cab439aed8148ba57305, type: 3}
      propertyPath: effects.Array.data[0]
      value: 
      objectReference: {fileID: 5717596306825843494}
    - target: {fileID: 6666602212761262591, guid: c9cbb1ef5848cab439aed8148ba57305, type: 3}
      propertyPath: energy_amount_consumed
      value: 0
      objectReference: {fileID: 0}
    - target: {fileID: 6985776862614678499, guid: c9cbb1ef5848cab439aed8148ba57305, type: 3}
      propertyPath: m_text
      value: Queens Gambit
      objectReference: {fileID: 0}
    m_RemovedComponents: []
  m_SourcePrefab: {fileID: 100100000, guid: c9cbb1ef5848cab439aed8148ba57305, type: 3}
--- !u!1 &8615557064421866631 stripped
GameObject:
  m_CorrespondingSourceObject: {fileID: 3892813988556208845, guid: c9cbb1ef5848cab439aed8148ba57305, type: 3}
  m_PrefabInstance: {fileID: 4726130001175938634}
  m_PrefabAsset: {fileID: 0}
