%YAML 1.1
%TAG !u! tag:unity3d.com,2011:
--- !u!114 &7786665235278612632
MonoBehaviour:
  m_ObjectHideFlags: 0
  m_CorrespondingSourceObject: {fileID: 0}
  m_PrefabInstance: {fileID: 0}
  m_PrefabAsset: {fileID: 0}
  m_GameObject: {fileID: 7704935782991499379}
  m_Enabled: 1
  m_EditorHideFlags: 0
  m_Script: {fileID: 11500000, guid: ed362d6ea5f2c5747b37cf5c979512c7, type: 3}
  m_Name: 
  m_EditorClassIdentifier: 
  effect_token: {fileID: 21300000, guid: 118a7b67e47204ea1b655fa1e920203c, type: 3}
  tooltip_prefab: {fileID: 0}
  force_target_self: 0
  effect_amount: 5
  use_ap_cost_for_amount: 0
  isEndTurnEffect: 1
--- !u!1001 &6650676044217068720
PrefabInstance:
  m_ObjectHideFlags: 0
  serializedVersion: 2
  m_Modification:
    m_TransformParent: {fileID: 0}
    m_Modifications:
    - target: {fileID: 2499423413309616154, guid: dd1291441f1b28c4bb5c47c001812430, type: 3}
      propertyPath: m_text
      value: ally
      objectReference: {fileID: 0}
    - target: {fileID: 3665025757214134363, guid: dd1291441f1b28c4bb5c47c001812430, type: 3}
      propertyPath: m_text
      value: Gain 5 Strength
      objectReference: {fileID: 0}
    - target: {fileID: 3665025757214134363, guid: dd1291441f1b28c4bb5c47c001812430, type: 3}
      propertyPath: m_fontSize
      value: 28
      objectReference: {fileID: 0}
    - target: {fileID: 3665025757214134363, guid: dd1291441f1b28c4bb5c47c001812430, type: 3}
      propertyPath: m_fontSizeBase
      value: 28
      objectReference: {fileID: 0}
    - target: {fileID: 3938007434523950275, guid: dd1291441f1b28c4bb5c47c001812430, type: 3}
      propertyPath: m_Name
      value: Primal Instinct
      objectReference: {fileID: 0}
    - target: {fileID: 4258114642552187720, guid: dd1291441f1b28c4bb5c47c001812430, type: 3}
      propertyPath: m_Pivot.x
      value: 0.5
      objectReference: {fileID: 0}
    - target: {fileID: 4258114642552187720, guid: dd1291441f1b28c4bb5c47c001812430, type: 3}
      propertyPath: m_Pivot.y
      value: 0.5
      objectReference: {fileID: 0}
    - target: {fileID: 4258114642552187720, guid: dd1291441f1b28c4bb5c47c001812430, type: 3}
      propertyPath: m_RootOrder
      value: 0
      objectReference: {fileID: 0}
    - target: {fileID: 4258114642552187720, guid: dd1291441f1b28c4bb5c47c001812430, type: 3}
      propertyPath: m_AnchorMax.x
      value: 0.5
      objectReference: {fileID: 0}
    - target: {fileID: 4258114642552187720, guid: dd1291441f1b28c4bb5c47c001812430, type: 3}
      propertyPath: m_AnchorMax.y
      value: 0.5
      objectReference: {fileID: 0}
    - target: {fileID: 4258114642552187720, guid: dd1291441f1b28c4bb5c47c001812430, type: 3}
      propertyPath: m_AnchorMin.x
      value: 0.5
      objectReference: {fileID: 0}
    - target: {fileID: 4258114642552187720, guid: dd1291441f1b28c4bb5c47c001812430, type: 3}
      propertyPath: m_AnchorMin.y
      value: 0.5
      objectReference: {fileID: 0}
    - target: {fileID: 4258114642552187720, guid: dd1291441f1b28c4bb5c47c001812430, type: 3}
      propertyPath: m_SizeDelta.x
      value: 350
      objectReference: {fileID: 0}
    - target: {fileID: 4258114642552187720, guid: dd1291441f1b28c4bb5c47c001812430, type: 3}
      propertyPath: m_SizeDelta.y
      value: 565
      objectReference: {fileID: 0}
    - target: {fileID: 4258114642552187720, guid: dd1291441f1b28c4bb5c47c001812430, type: 3}
      propertyPath: m_LocalPosition.x
      value: 0
      objectReference: {fileID: 0}
    - target: {fileID: 4258114642552187720, guid: dd1291441f1b28c4bb5c47c001812430, type: 3}
      propertyPath: m_LocalPosition.y
      value: 0
      objectReference: {fileID: 0}
    - target: {fileID: 4258114642552187720, guid: dd1291441f1b28c4bb5c47c001812430, type: 3}
      propertyPath: m_LocalPosition.z
      value: 0
      objectReference: {fileID: 0}
    - target: {fileID: 4258114642552187720, guid: dd1291441f1b28c4bb5c47c001812430, type: 3}
      propertyPath: m_LocalRotation.w
      value: 1
      objectReference: {fileID: 0}
    - target: {fileID: 4258114642552187720, guid: dd1291441f1b28c4bb5c47c001812430, type: 3}
      propertyPath: m_LocalRotation.x
      value: -0
      objectReference: {fileID: 0}
    - target: {fileID: 4258114642552187720, guid: dd1291441f1b28c4bb5c47c001812430, type: 3}
      propertyPath: m_LocalRotation.y
      value: -0
      objectReference: {fileID: 0}
    - target: {fileID: 4258114642552187720, guid: dd1291441f1b28c4bb5c47c001812430, type: 3}
      propertyPath: m_LocalRotation.z
      value: -0
      objectReference: {fileID: 0}
    - target: {fileID: 4258114642552187720, guid: dd1291441f1b28c4bb5c47c001812430, type: 3}
      propertyPath: m_AnchoredPosition.x
      value: -1682.3463
      objectReference: {fileID: 0}
    - target: {fileID: 4258114642552187720, guid: dd1291441f1b28c4bb5c47c001812430, type: 3}
      propertyPath: m_AnchoredPosition.y
      value: -1004
      objectReference: {fileID: 0}
    - target: {fileID: 4258114642552187720, guid: dd1291441f1b28c4bb5c47c001812430, type: 3}
      propertyPath: m_LocalEulerAnglesHint.x
      value: 0
      objectReference: {fileID: 0}
    - target: {fileID: 4258114642552187720, guid: dd1291441f1b28c4bb5c47c001812430, type: 3}
      propertyPath: m_LocalEulerAnglesHint.y
      value: 0
      objectReference: {fileID: 0}
    - target: {fileID: 4258114642552187720, guid: dd1291441f1b28c4bb5c47c001812430, type: 3}
      propertyPath: m_LocalEulerAnglesHint.z
      value: 0
      objectReference: {fileID: 0}
    - target: {fileID: 4330617396079483061, guid: dd1291441f1b28c4bb5c47c001812430, type: 3}
      propertyPath: m_Sprite
      value: 
      objectReference: {fileID: 21300000, guid: 1fd58ef3a13151a429fe88f93af5ce27, type: 3}
    - target: {fileID: 6639456159138979825, guid: dd1291441f1b28c4bb5c47c001812430, type: 3}
      propertyPath: card_name
      value: Primal Instinct
      objectReference: {fileID: 0}
    - target: {fileID: 6639456159138979825, guid: dd1291441f1b28c4bb5c47c001812430, type: 3}
      propertyPath: sound_name
      value: Howling
      objectReference: {fileID: 0}
    - target: {fileID: 6639456159138979825, guid: dd1291441f1b28c4bb5c47c001812430, type: 3}
      propertyPath: defaultCost
      value: 2
      objectReference: {fileID: 0}
    - target: {fileID: 6639456159138979825, guid: dd1291441f1b28c4bb5c47c001812430, type: 3}
      propertyPath: effects.Array.size
      value: 1
      objectReference: {fileID: 0}
    - target: {fileID: 6639456159138979825, guid: dd1291441f1b28c4bb5c47c001812430, type: 3}
      propertyPath: visual_effect_prefab
      value: 
      objectReference: {fileID: 3123034477758616712, guid: 5f38bd30810704f4cbbd145e106dc540, type: 3}
    - target: {fileID: 6639456159138979825, guid: dd1291441f1b28c4bb5c47c001812430, type: 3}
      propertyPath: effects.Array.data[0]
      value: 
      objectReference: {fileID: 7786665235278612632}
    - target: {fileID: 6940863260648254957, guid: dd1291441f1b28c4bb5c47c001812430, type: 3}
      propertyPath: m_text
      value: Primal Instinct
      objectReference: {fileID: 0}
    - target: {fileID: 6940863260648254957, guid: dd1291441f1b28c4bb5c47c001812430, type: 3}
      propertyPath: m_fontStyle
      value: 16
      objectReference: {fileID: 0}
    m_RemovedComponents: []
  m_SourcePrefab: {fileID: 100100000, guid: dd1291441f1b28c4bb5c47c001812430, type: 3}
--- !u!1 &7704935782991499379 stripped
GameObject:
  m_CorrespondingSourceObject: {fileID: 3938007434523950275, guid: dd1291441f1b28c4bb5c47c001812430, type: 3}
  m_PrefabInstance: {fileID: 6650676044217068720}
  m_PrefabAsset: {fileID: 0}
