%YAML 1.1
%TAG !u! tag:unity3d.com,2011:
--- !u!1001 &465038910147266651
PrefabInstance:
  m_ObjectHideFlags: 0
  serializedVersion: 2
  m_Modification:
    m_TransformParent: {fileID: 0}
    m_Modifications:
    - target: {fileID: 51631429345651652, guid: 52a525a066276ac4f907f339194605b5, type: 3}
      propertyPath: m_SizeDelta.y
      value: 78.5853
      objectReference: {fileID: 0}
    - target: {fileID: 51631429345651652, guid: 52a525a066276ac4f907f339194605b5, type: 3}
      propertyPath: m_AnchoredPosition.y
      value: 0
      objectReference: {fileID: 0}
    - target: {fileID: 984975328876700596, guid: 52a525a066276ac4f907f339194605b5, type: 3}
      propertyPath: m_text
      value: "Passive: Apply 1 Haste\n  per bee.\nSignal: Generate 1\n  random energy."
      objectReference: {fileID: 0}
    - target: {fileID: 1216921081076487507, guid: 52a525a066276ac4f907f339194605b5, type: 3}
      propertyPath: m_text
      value: Worker Bee
      objectReference: {fileID: 0}
    - target: {fileID: 6154176232466715039, guid: 52a525a066276ac4f907f339194605b5, type: 3}
      propertyPath: m_Name
      value: Bee_Worker_Tooltip
      objectReference: {fileID: 0}
    - target: {fileID: 7312767013893321639, guid: 52a525a066276ac4f907f339194605b5, type: 3}
      propertyPath: m_Pivot.x
      value: 0.5
      objectReference: {fileID: 0}
    - target: {fileID: 7312767013893321639, guid: 52a525a066276ac4f907f339194605b5, type: 3}
      propertyPath: m_Pivot.y
      value: 0.5
      objectReference: {fileID: 0}
    - target: {fileID: 7312767013893321639, guid: 52a525a066276ac4f907f339194605b5, type: 3}
      propertyPath: m_RootOrder
      value: 0
      objectReference: {fileID: 0}
    - target: {fileID: 7312767013893321639, guid: 52a525a066276ac4f907f339194605b5, type: 3}
      propertyPath: m_AnchorMax.x
      value: 0
      objectReference: {fileID: 0}
    - target: {fileID: 7312767013893321639, guid: 52a525a066276ac4f907f339194605b5, type: 3}
      propertyPath: m_AnchorMax.y
      value: 0
      objectReference: {fileID: 0}
    - target: {fileID: 7312767013893321639, guid: 52a525a066276ac4f907f339194605b5, type: 3}
      propertyPath: m_AnchorMin.x
      value: 0
      objectReference: {fileID: 0}
    - target: {fileID: 7312767013893321639, guid: 52a525a066276ac4f907f339194605b5, type: 3}
      propertyPath: m_AnchorMin.y
      value: 0
      objectReference: {fileID: 0}
    - target: {fileID: 7312767013893321639, guid: 52a525a066276ac4f907f339194605b5, type: 3}
      propertyPath: m_SizeDelta.x
      value: 294.82892
      objectReference: {fileID: 0}
    - target: {fileID: 7312767013893321639, guid: 52a525a066276ac4f907f339194605b5, type: 3}
      propertyPath: m_SizeDelta.y
      value: 152.66231
      objectReference: {fileID: 0}
    - target: {fileID: 7312767013893321639, guid: 52a525a066276ac4f907f339194605b5, type: 3}
      propertyPath: m_LocalPosition.x
      value: 0
      objectReference: {fileID: 0}
    - target: {fileID: 7312767013893321639, guid: 52a525a066276ac4f907f339194605b5, type: 3}
      propertyPath: m_LocalPosition.y
      value: 0
      objectReference: {fileID: 0}
    - target: {fileID: 7312767013893321639, guid: 52a525a066276ac4f907f339194605b5, type: 3}
      propertyPath: m_LocalPosition.z
      value: 0
      objectReference: {fileID: 0}
    - target: {fileID: 7312767013893321639, guid: 52a525a066276ac4f907f339194605b5, type: 3}
      propertyPath: m_LocalRotation.w
      value: 1
      objectReference: {fileID: 0}
    - target: {fileID: 7312767013893321639, guid: 52a525a066276ac4f907f339194605b5, type: 3}
      propertyPath: m_LocalRotation.x
      value: -0
      objectReference: {fileID: 0}
    - target: {fileID: 7312767013893321639, guid: 52a525a066276ac4f907f339194605b5, type: 3}
      propertyPath: m_LocalRotation.y
      value: -0
      objectReference: {fileID: 0}
    - target: {fileID: 7312767013893321639, guid: 52a525a066276ac4f907f339194605b5, type: 3}
      propertyPath: m_LocalRotation.z
      value: -0
      objectReference: {fileID: 0}
    - target: {fileID: 7312767013893321639, guid: 52a525a066276ac4f907f339194605b5, type: 3}
      propertyPath: m_AnchoredPosition.x
      value: 2250.7192
      objectReference: {fileID: 0}
    - target: {fileID: 7312767013893321639, guid: 52a525a066276ac4f907f339194605b5, type: 3}
      propertyPath: m_AnchoredPosition.y
      value: 1148.1633
      objectReference: {fileID: 0}
    - target: {fileID: 7312767013893321639, guid: 52a525a066276ac4f907f339194605b5, type: 3}
      propertyPath: m_LocalEulerAnglesHint.x
      value: 0
      objectReference: {fileID: 0}
    - target: {fileID: 7312767013893321639, guid: 52a525a066276ac4f907f339194605b5, type: 3}
      propertyPath: m_LocalEulerAnglesHint.y
      value: 0
      objectReference: {fileID: 0}
    - target: {fileID: 7312767013893321639, guid: 52a525a066276ac4f907f339194605b5, type: 3}
      propertyPath: m_LocalEulerAnglesHint.z
      value: 0
      objectReference: {fileID: 0}
    - target: {fileID: 8635416737097695073, guid: 52a525a066276ac4f907f339194605b5, type: 3}
      propertyPath: m_AnchoredPosition.y
      value: 25.900024
      objectReference: {fileID: 0}
    - target: {fileID: 9137123130254377224, guid: 52a525a066276ac4f907f339194605b5, type: 3}
      propertyPath: m_AnchoredPosition.y
      value: 59.5
      objectReference: {fileID: 0}
    m_RemovedComponents: []
  m_SourcePrefab: {fileID: 100100000, guid: 52a525a066276ac4f907f339194605b5, type: 3}
