%YAML 1.1
%TAG !u! tag:unity3d.com,2011:
--- !u!1 &6658025760724554927
GameObject:
  m_ObjectHideFlags: 0
  m_CorrespondingSourceObject: {fileID: 0}
  m_PrefabInstance: {fileID: 0}
  m_PrefabAsset: {fileID: 0}
  serializedVersion: 6
  m_Component:
  - component: {fileID: 5114104691462852543}
  - component: {fileID: 7691698970757021922}
  - component: {fileID: 2798053755147828418}
  m_Layer: 5
  m_Name: Image (1)
  m_TagString: Untagged
  m_Icon: {fileID: 0}
  m_NavMeshLayer: 0
  m_StaticEditorFlags: 0
  m_IsActive: 1
--- !u!224 &5114104691462852543
RectTransform:
  m_ObjectHideFlags: 0
  m_CorrespondingSourceObject: {fileID: 0}
  m_PrefabInstance: {fileID: 0}
  m_PrefabAsset: {fileID: 0}
  m_GameObject: {fileID: 6658025760724554927}
  m_LocalRotation: {x: -0, y: -0, z: -0, w: 1}
  m_LocalPosition: {x: 0, y: 0, z: 0}
  m_LocalScale: {x: 1, y: 1, z: 1}
  m_Children: []
  m_Father: {fileID: 7715429322323346528}
  m_RootOrder: 3
  m_LocalEulerAnglesHint: {x: 0, y: 0, z: 0}
  m_AnchorMin: {x: 0.5, y: 0.5}
  m_AnchorMax: {x: 0.5, y: 0.5}
  m_AnchoredPosition: {x: -33.42, y: 37.298096}
  m_SizeDelta: {x: 25.4045, y: 25.405}
  m_Pivot: {x: 0.5, y: 0.5}
--- !u!222 &7691698970757021922
CanvasRenderer:
  m_ObjectHideFlags: 0
  m_CorrespondingSourceObject: {fileID: 0}
  m_PrefabInstance: {fileID: 0}
  m_PrefabAsset: {fileID: 0}
  m_GameObject: {fileID: 6658025760724554927}
  m_CullTransparentMesh: 1
--- !u!114 &2798053755147828418
MonoBehaviour:
  m_ObjectHideFlags: 0
  m_CorrespondingSourceObject: {fileID: 0}
  m_PrefabInstance: {fileID: 0}
  m_PrefabAsset: {fileID: 0}
  m_GameObject: {fileID: 6658025760724554927}
  m_Enabled: 1
  m_EditorHideFlags: 0
  m_Script: {fileID: 11500000, guid: fe87c0e1cc204ed48ad3b37840f39efc, type: 3}
  m_Name: 
  m_EditorClassIdentifier: 
  m_Material: {fileID: 0}
  m_Color: {r: 1, g: 1, b: 1, a: 1}
  m_RaycastTarget: 1
  m_RaycastPadding: {x: 0, y: 0, z: 0, w: 0}
  m_Maskable: 1
  m_OnCullStateChanged:
    m_PersistentCalls:
      m_Calls: []
  m_Sprite: {fileID: 21300000, guid: 5cc134454439c4af1b80d4dcab73c9cc, type: 3}
  m_Type: 0
  m_PreserveAspect: 0
  m_FillCenter: 1
  m_FillMethod: 4
  m_FillAmount: 1
  m_FillClockwise: 1
  m_FillOrigin: 0
  m_UseSpriteMesh: 0
  m_PixelsPerUnitMultiplier: 1
--- !u!1001 &1039940970717214663
PrefabInstance:
  m_ObjectHideFlags: 0
  serializedVersion: 2
  m_Modification:
    m_TransformParent: {fileID: 0}
    m_Modifications:
    - target: {fileID: 984975328876700596, guid: 52a525a066276ac4f907f339194605b5, type: 3}
      propertyPath: m_text
      value: Draws less cards at the start of target's turn.
      objectReference: {fileID: 0}
    - target: {fileID: 1216921081076487507, guid: 52a525a066276ac4f907f339194605b5, type: 3}
      propertyPath: m_text
      value: Draw-
      objectReference: {fileID: 0}
    - target: {fileID: 6154176232466715039, guid: 52a525a066276ac4f907f339194605b5, type: 3}
      propertyPath: m_Name
      value: Draw-_Tooltip
      objectReference: {fileID: 0}
    - target: {fileID: 7312767013893321639, guid: 52a525a066276ac4f907f339194605b5, type: 3}
      propertyPath: m_Pivot.x
      value: 0.5
      objectReference: {fileID: 0}
    - target: {fileID: 7312767013893321639, guid: 52a525a066276ac4f907f339194605b5, type: 3}
      propertyPath: m_Pivot.y
      value: 0.5
      objectReference: {fileID: 0}
    - target: {fileID: 7312767013893321639, guid: 52a525a066276ac4f907f339194605b5, type: 3}
      propertyPath: m_RootOrder
      value: 0
      objectReference: {fileID: 0}
    - target: {fileID: 7312767013893321639, guid: 52a525a066276ac4f907f339194605b5, type: 3}
      propertyPath: m_AnchorMax.x
      value: 0
      objectReference: {fileID: 0}
    - target: {fileID: 7312767013893321639, guid: 52a525a066276ac4f907f339194605b5, type: 3}
      propertyPath: m_AnchorMax.y
      value: 0
      objectReference: {fileID: 0}
    - target: {fileID: 7312767013893321639, guid: 52a525a066276ac4f907f339194605b5, type: 3}
      propertyPath: m_AnchorMin.x
      value: 0
      objectReference: {fileID: 0}
    - target: {fileID: 7312767013893321639, guid: 52a525a066276ac4f907f339194605b5, type: 3}
      propertyPath: m_AnchorMin.y
      value: 0
      objectReference: {fileID: 0}
    - target: {fileID: 7312767013893321639, guid: 52a525a066276ac4f907f339194605b5, type: 3}
      propertyPath: m_SizeDelta.x
      value: 294.8499
      objectReference: {fileID: 0}
    - target: {fileID: 7312767013893321639, guid: 52a525a066276ac4f907f339194605b5, type: 3}
      propertyPath: m_SizeDelta.y
      value: 111.1323
      objectReference: {fileID: 0}
    - target: {fileID: 7312767013893321639, guid: 52a525a066276ac4f907f339194605b5, type: 3}
      propertyPath: m_LocalPosition.x
      value: 0
      objectReference: {fileID: 0}
    - target: {fileID: 7312767013893321639, guid: 52a525a066276ac4f907f339194605b5, type: 3}
      propertyPath: m_LocalPosition.y
      value: 0
      objectReference: {fileID: 0}
    - target: {fileID: 7312767013893321639, guid: 52a525a066276ac4f907f339194605b5, type: 3}
      propertyPath: m_LocalPosition.z
      value: 0
      objectReference: {fileID: 0}
    - target: {fileID: 7312767013893321639, guid: 52a525a066276ac4f907f339194605b5, type: 3}
      propertyPath: m_LocalRotation.w
      value: 1
      objectReference: {fileID: 0}
    - target: {fileID: 7312767013893321639, guid: 52a525a066276ac4f907f339194605b5, type: 3}
      propertyPath: m_LocalRotation.x
      value: -0
      objectReference: {fileID: 0}
    - target: {fileID: 7312767013893321639, guid: 52a525a066276ac4f907f339194605b5, type: 3}
      propertyPath: m_LocalRotation.y
      value: -0
      objectReference: {fileID: 0}
    - target: {fileID: 7312767013893321639, guid: 52a525a066276ac4f907f339194605b5, type: 3}
      propertyPath: m_LocalRotation.z
      value: -0
      objectReference: {fileID: 0}
    - target: {fileID: 7312767013893321639, guid: 52a525a066276ac4f907f339194605b5, type: 3}
      propertyPath: m_AnchoredPosition.x
      value: 2250.73
      objectReference: {fileID: 0}
    - target: {fileID: 7312767013893321639, guid: 52a525a066276ac4f907f339194605b5, type: 3}
      propertyPath: m_AnchoredPosition.y
      value: 1168.9287
      objectReference: {fileID: 0}
    - target: {fileID: 7312767013893321639, guid: 52a525a066276ac4f907f339194605b5, type: 3}
      propertyPath: m_LocalEulerAnglesHint.x
      value: 0
      objectReference: {fileID: 0}
    - target: {fileID: 7312767013893321639, guid: 52a525a066276ac4f907f339194605b5, type: 3}
      propertyPath: m_LocalEulerAnglesHint.y
      value: 0
      objectReference: {fileID: 0}
    - target: {fileID: 7312767013893321639, guid: 52a525a066276ac4f907f339194605b5, type: 3}
      propertyPath: m_LocalEulerAnglesHint.z
      value: 0
      objectReference: {fileID: 0}
    m_RemovedComponents: []
  m_SourcePrefab: {fileID: 100100000, guid: 52a525a066276ac4f907f339194605b5, type: 3}
--- !u!224 &7715429322323346528 stripped
RectTransform:
  m_CorrespondingSourceObject: {fileID: 7312767013893321639, guid: 52a525a066276ac4f907f339194605b5, type: 3}
  m_PrefabInstance: {fileID: 1039940970717214663}
  m_PrefabAsset: {fileID: 0}
