%YAML 1.1
%TAG !u! tag:unity3d.com,2011:
--- !u!1001 &4432502769234656243
PrefabInstance:
  m_ObjectHideFlags: 0
  serializedVersion: 2
  m_Modification:
    m_TransformParent: {fileID: 0}
    m_Modifications:
    - target: {fileID: 51631429345651652, guid: 52a525a066276ac4f907f339194605b5, type: 3}
      propertyPath: m_SizeDelta.y
      value: 89.5301
      objectReference: {fileID: 0}
    - target: {fileID: 51631429345651652, guid: 52a525a066276ac4f907f339194605b5, type: 3}
      propertyPath: m_AnchoredPosition.y
      value: 0
      objectReference: {fileID: 0}
    - target: {fileID: 984975328876700596, guid: 52a525a066276ac4f907f339194605b5, type: 3}
      propertyPath: m_text
      value: "Deal 1-4 damage to enemies at the start of their turn.\n*Only one weather
        effect\n can be active at a time.*"
      objectReference: {fileID: 0}
    - target: {fileID: 1216921081076487507, guid: 52a525a066276ac4f907f339194605b5, type: 3}
      propertyPath: m_text
      value: Scorching Weather
      objectReference: {fileID: 0}
    - target: {fileID: 2956076513434776379, guid: 52a525a066276ac4f907f339194605b5, type: 3}
      propertyPath: m_PreferredWidth
      value: 294.8282
      objectReference: {fileID: 0}
    - target: {fileID: 2956076513434776379, guid: 52a525a066276ac4f907f339194605b5, type: 3}
      propertyPath: m_PreferredHeight
      value: 173.92203
      objectReference: {fileID: 0}
    - target: {fileID: 6154176232466715039, guid: 52a525a066276ac4f907f339194605b5, type: 3}
      propertyPath: m_Name
      value: ScorchingWeather_Tooltip
      objectReference: {fileID: 0}
    - target: {fileID: 7312767013893321639, guid: 52a525a066276ac4f907f339194605b5, type: 3}
      propertyPath: m_Pivot.x
      value: 0.5
      objectReference: {fileID: 0}
    - target: {fileID: 7312767013893321639, guid: 52a525a066276ac4f907f339194605b5, type: 3}
      propertyPath: m_Pivot.y
      value: 0.5
      objectReference: {fileID: 0}
    - target: {fileID: 7312767013893321639, guid: 52a525a066276ac4f907f339194605b5, type: 3}
      propertyPath: m_RootOrder
      value: 0
      objectReference: {fileID: 0}
    - target: {fileID: 7312767013893321639, guid: 52a525a066276ac4f907f339194605b5, type: 3}
      propertyPath: m_AnchorMax.x
      value: 0
      objectReference: {fileID: 0}
    - target: {fileID: 7312767013893321639, guid: 52a525a066276ac4f907f339194605b5, type: 3}
      propertyPath: m_AnchorMax.y
      value: 0
      objectReference: {fileID: 0}
    - target: {fileID: 7312767013893321639, guid: 52a525a066276ac4f907f339194605b5, type: 3}
      propertyPath: m_AnchorMin.x
      value: 0
      objectReference: {fileID: 0}
    - target: {fileID: 7312767013893321639, guid: 52a525a066276ac4f907f339194605b5, type: 3}
      propertyPath: m_AnchorMin.y
      value: 0
      objectReference: {fileID: 0}
    - target: {fileID: 7312767013893321639, guid: 52a525a066276ac4f907f339194605b5, type: 3}
      propertyPath: m_SizeDelta.x
      value: 294.8282
      objectReference: {fileID: 0}
    - target: {fileID: 7312767013893321639, guid: 52a525a066276ac4f907f339194605b5, type: 3}
      propertyPath: m_SizeDelta.y
      value: 173.92203
      objectReference: {fileID: 0}
    - target: {fileID: 7312767013893321639, guid: 52a525a066276ac4f907f339194605b5, type: 3}
      propertyPath: m_LocalPosition.x
      value: 0
      objectReference: {fileID: 0}
    - target: {fileID: 7312767013893321639, guid: 52a525a066276ac4f907f339194605b5, type: 3}
      propertyPath: m_LocalPosition.y
      value: 0
      objectReference: {fileID: 0}
    - target: {fileID: 7312767013893321639, guid: 52a525a066276ac4f907f339194605b5, type: 3}
      propertyPath: m_LocalPosition.z
      value: 0
      objectReference: {fileID: 0}
    - target: {fileID: 7312767013893321639, guid: 52a525a066276ac4f907f339194605b5, type: 3}
      propertyPath: m_LocalRotation.w
      value: 1
      objectReference: {fileID: 0}
    - target: {fileID: 7312767013893321639, guid: 52a525a066276ac4f907f339194605b5, type: 3}
      propertyPath: m_LocalRotation.x
      value: -0
      objectReference: {fileID: 0}
    - target: {fileID: 7312767013893321639, guid: 52a525a066276ac4f907f339194605b5, type: 3}
      propertyPath: m_LocalRotation.y
      value: -0
      objectReference: {fileID: 0}
    - target: {fileID: 7312767013893321639, guid: 52a525a066276ac4f907f339194605b5, type: 3}
      propertyPath: m_LocalRotation.z
      value: -0
      objectReference: {fileID: 0}
    - target: {fileID: 7312767013893321639, guid: 52a525a066276ac4f907f339194605b5, type: 3}
      propertyPath: m_AnchoredPosition.x
      value: 2250.7217
      objectReference: {fileID: 0}
    - target: {fileID: 7312767013893321639, guid: 52a525a066276ac4f907f339194605b5, type: 3}
      propertyPath: m_AnchoredPosition.y
      value: 1137.5326
      objectReference: {fileID: 0}
    - target: {fileID: 7312767013893321639, guid: 52a525a066276ac4f907f339194605b5, type: 3}
      propertyPath: m_LocalEulerAnglesHint.x
      value: 0
      objectReference: {fileID: 0}
    - target: {fileID: 7312767013893321639, guid: 52a525a066276ac4f907f339194605b5, type: 3}
      propertyPath: m_LocalEulerAnglesHint.y
      value: 0
      objectReference: {fileID: 0}
    - target: {fileID: 7312767013893321639, guid: 52a525a066276ac4f907f339194605b5, type: 3}
      propertyPath: m_LocalEulerAnglesHint.z
      value: 0
      objectReference: {fileID: 0}
    - target: {fileID: 8635416737097695073, guid: 52a525a066276ac4f907f339194605b5, type: 3}
      propertyPath: m_AnchoredPosition.y
      value: 37.400024
      objectReference: {fileID: 0}
    - target: {fileID: 9137123130254377224, guid: 52a525a066276ac4f907f339194605b5, type: 3}
      propertyPath: m_AnchoredPosition.y
      value: 71
      objectReference: {fileID: 0}
    m_RemovedComponents: []
  m_SourcePrefab: {fileID: 100100000, guid: 52a525a066276ac4f907f339194605b5, type: 3}
