%YAML 1.1
%TAG !u! tag:unity3d.com,2011:
--- !u!114 &11400000
MonoBehaviour:
  m_ObjectHideFlags: 0
  m_CorrespondingSourceObject: {fileID: 0}
  m_PrefabInstance: {fileID: 0}
  m_PrefabAsset: {fileID: 0}
  m_GameObject: {fileID: 0}
  m_Enabled: 1
  m_EditorHideFlags: 0
  m_Script: {fileID: 11500000, guid: 80601c6b37778e44a96e34e101ff163d, type: 3}
  m_Name: OverworldData
  m_EditorClassIdentifier: 
  current_vertex_id:
    position: {x: 3.0000002, y: -3, z: 0}
    type: 0
    level: 0
    id: f5cc0e9b-f2bc-4527-af1f-274c3ece65cf
    encounterDataSO: {fileID: 11400000, guid: 167ec3056b048d54aab12e840f8297df, type: 2}
  level_name: TODOIMPLEMENT
  zoneLayout:
    vertices:
    - position: {x: -6, y: -3, z: 0}
      type: 0
      level: 0
      id: c3528a26-9139-45e5-b915-230c8ac90376
      encounterDataSO: {fileID: 11400000, guid: 167ec3056b048d54aab12e840f8297df, type: 2}
    - position: {x: -6, y: -0.5, z: 0}
      type: 0
      level: 0
      id: ab3982a7-37ea-40b6-8d9b-906fbf15f56b
      encounterDataSO: {fileID: 11400000, guid: 167ec3056b048d54aab12e840f8297df, type: 2}
    - position: {x: -6, y: 2, z: 0}
      type: 0
      level: 0
      id: 5fe23bd2-56ee-4915-94a1-a4c36c221572
      encounterDataSO: {fileID: 11400000, guid: 167ec3056b048d54aab12e840f8297df, type: 2}
    - position: {x: -3, y: -3, z: 0}
      type: 0
      level: 0
      id: d81da9d4-7211-443f-a572-4d1e2313d2cb
      encounterDataSO: {fileID: 11400000, guid: 167ec3056b048d54aab12e840f8297df, type: 2}
    - position: {x: -2.3750546, y: -0.5, z: 0}
      type: 4
      level: 0
      id: 48e43ca9-b086-441f-a0e8-a8a15ceb8521
      encounterDataSO: {fileID: 11400000, guid: 167ec3056b048d54aab12e840f8297df, type: 2}
    - position: {x: -3.674223, y: 2, z: 0}
      type: 0
      level: 0
      id: 23bb7b69-76df-42bc-887a-60820afb3cfe
      encounterDataSO: {fileID: 11400000, guid: 167ec3056b048d54aab12e840f8297df, type: 2}
    - position: {x: 0, y: -3, z: 0}
      type: 0
      level: 0
      id: 3f25316d-6a0d-4cca-9ac5-add2ca4fbd74
      encounterDataSO: {fileID: 11400000, guid: 167ec3056b048d54aab12e840f8297df, type: 2}
    - position: {x: -0.19362855, y: -0.5, z: 0}
      type: 3
      level: 0
      id: 7de948ca-8f42-49ea-b73f-83afc56ab8c8
      encounterDataSO: {fileID: 11400000, guid: 167ec3056b048d54aab12e840f8297df, type: 2}
    - position: {x: 0.10113859, y: 2, z: 0}
      type: 2
      level: 0
      id: f9e7005f-b1b3-4535-9946-4e42bc7e5ae9
      encounterDataSO: {fileID: 11400000, guid: 167ec3056b048d54aab12e840f8297df, type: 2}
    - position: {x: 3.0000002, y: -3, z: 0}
      type: 0
      level: 0
      id: f5cc0e9b-f2bc-4527-af1f-274c3ece65cf
      encounterDataSO: {fileID: 11400000, guid: 167ec3056b048d54aab12e840f8297df, type: 2}
    - position: {x: 3.4690487, y: -0.5, z: 0}
      type: 4
      level: 0
      id: 4488a9b5-d0a8-4515-b9b1-7e45962bc3af
      encounterDataSO: {fileID: 11400000, guid: 167ec3056b048d54aab12e840f8297df, type: 2}
    - position: {x: 2.8536007, y: 2, z: 0}
      type: 0
      level: 0
      id: 128dc8d4-87c5-4b12-97d5-dfd6d6a7d362
      encounterDataSO: {fileID: 11400000, guid: 167ec3056b048d54aab12e840f8297df, type: 2}
    - position: {x: 7.792633, y: -1.3127782, z: 0}
      type: 1
      level: 0
      id: a4c99ae2-b772-4f12-8e07-6c32e8ed9db1
      encounterDataSO: {fileID: 11400000, guid: 167ec3056b048d54aab12e840f8297df, type: 2}
    edges:
    - idFrom: d81da9d4-7211-443f-a572-4d1e2313d2cb
      idTo: c3528a26-9139-45e5-b915-230c8ac90376
    - idFrom: 48e43ca9-b086-441f-a0e8-a8a15ceb8521
      idTo: ab3982a7-37ea-40b6-8d9b-906fbf15f56b
    - idFrom: 23bb7b69-76df-42bc-887a-60820afb3cfe
      idTo: 5fe23bd2-56ee-4915-94a1-a4c36c221572
    - idFrom: 3f25316d-6a0d-4cca-9ac5-add2ca4fbd74
      idTo: d81da9d4-7211-443f-a572-4d1e2313d2cb
    - idFrom: 7de948ca-8f42-49ea-b73f-83afc56ab8c8
      idTo: 48e43ca9-b086-441f-a0e8-a8a15ceb8521
    - idFrom: f9e7005f-b1b3-4535-9946-4e42bc7e5ae9
      idTo: 23bb7b69-76df-42bc-887a-60820afb3cfe
    - idFrom: f5cc0e9b-f2bc-4527-af1f-274c3ece65cf
      idTo: 3f25316d-6a0d-4cca-9ac5-add2ca4fbd74
    - idFrom: 4488a9b5-d0a8-4515-b9b1-7e45962bc3af
      idTo: 7de948ca-8f42-49ea-b73f-83afc56ab8c8
    - idFrom: 128dc8d4-87c5-4b12-97d5-dfd6d6a7d362
      idTo: f9e7005f-b1b3-4535-9946-4e42bc7e5ae9
    - idFrom: a4c99ae2-b772-4f12-8e07-6c32e8ed9db1
      idTo: f5cc0e9b-f2bc-4527-af1f-274c3ece65cf
    - idFrom: a4c99ae2-b772-4f12-8e07-6c32e8ed9db1
      idTo: 4488a9b5-d0a8-4515-b9b1-7e45962bc3af
    - idFrom: a4c99ae2-b772-4f12-8e07-6c32e8ed9db1
      idTo: 128dc8d4-87c5-4b12-97d5-dfd6d6a7d362
