%YAML 1.1
%TAG !u! tag:unity3d.com,2011:
--- !u!114 &11400000
MonoBehaviour:
  m_ObjectHideFlags: 0
  m_CorrespondingSourceObject: {fileID: 0}
  m_PrefabInstance: {fileID: 0}
  m_PrefabAsset: {fileID: 0}
  m_GameObject: {fileID: 0}
  m_Enabled: 1
  m_EditorHideFlags: 0
  m_Script: {fileID: 11500000, guid: 1ef3411655421ba4087e7cd21e68122a, type: 3}
  m_Name: PlayerData
  m_EditorClassIdentifier: 
  party_members:
  - {fileID: 11400000, guid: fc634ce0306ff7c45af09e07cae28be0, type: 2}
  - {fileID: 11400000, guid: f175c9374eb02464a8911177db8bb87b, type: 2}
  - {fileID: 11400000, guid: 199a9d06652148a41917564341a503e0, type: 2}
  character_list:
  - {fileID: 11400000, guid: 378790d7a34ea854c8a1a48541ebf965, type: 2}
  - {fileID: 11400000, guid: 64bfa5e917721fc47a61478176f15f2a, type: 2}
  - {fileID: 11400000, guid: f175c9374eb02464a8911177db8bb87b, type: 2}
  - {fileID: 11400000, guid: fc634ce0306ff7c45af09e07cae28be0, type: 2}
  - {fileID: 11400000, guid: 199a9d06652148a41917564341a503e0, type: 2}
  money: 100
