%YAML 1.1
%TAG !u! tag:unity3d.com,2011:
--- !u!1001 &120202226367395598
PrefabInstance:
  m_ObjectHideFlags: 0
  serializedVersion: 2
  m_Modification:
    m_TransformParent: {fileID: 0}
    m_Modifications:
    - target: {fileID: 4849645874336816630, guid: 1cdb48c1561b012498f2a31413744ca2, type: 3}
      propertyPath: m_Pivot.x
      value: 0.5
      objectReference: {fileID: 0}
    - target: {fileID: 4849645874336816630, guid: 1cdb48c1561b012498f2a31413744ca2, type: 3}
      propertyPath: m_Pivot.y
      value: 0.5
      objectReference: {fileID: 0}
    - target: {fileID: 4849645874336816630, guid: 1cdb48c1561b012498f2a31413744ca2, type: 3}
      propertyPath: m_RootOrder
      value: 0
      objectReference: {fileID: 0}
    - target: {fileID: 4849645874336816630, guid: 1cdb48c1561b012498f2a31413744ca2, type: 3}
      propertyPath: m_AnchorMax.x
      value: 0.5
      objectReference: {fileID: 0}
    - target: {fileID: 4849645874336816630, guid: 1cdb48c1561b012498f2a31413744ca2, type: 3}
      propertyPath: m_AnchorMax.y
      value: 0.5
      objectReference: {fileID: 0}
    - target: {fileID: 4849645874336816630, guid: 1cdb48c1561b012498f2a31413744ca2, type: 3}
      propertyPath: m_AnchorMin.x
      value: 0.5
      objectReference: {fileID: 0}
    - target: {fileID: 4849645874336816630, guid: 1cdb48c1561b012498f2a31413744ca2, type: 3}
      propertyPath: m_AnchorMin.y
      value: 0.5
      objectReference: {fileID: 0}
    - target: {fileID: 4849645874336816630, guid: 1cdb48c1561b012498f2a31413744ca2, type: 3}
      propertyPath: m_SizeDelta.x
      value: 340
      objectReference: {fileID: 0}
    - target: {fileID: 4849645874336816630, guid: 1cdb48c1561b012498f2a31413744ca2, type: 3}
      propertyPath: m_SizeDelta.y
      value: 488.7195
      objectReference: {fileID: 0}
    - target: {fileID: 4849645874336816630, guid: 1cdb48c1561b012498f2a31413744ca2, type: 3}
      propertyPath: m_LocalPosition.x
      value: 0
      objectReference: {fileID: 0}
    - target: {fileID: 4849645874336816630, guid: 1cdb48c1561b012498f2a31413744ca2, type: 3}
      propertyPath: m_LocalPosition.y
      value: 0
      objectReference: {fileID: 0}
    - target: {fileID: 4849645874336816630, guid: 1cdb48c1561b012498f2a31413744ca2, type: 3}
      propertyPath: m_LocalPosition.z
      value: 0
      objectReference: {fileID: 0}
    - target: {fileID: 4849645874336816630, guid: 1cdb48c1561b012498f2a31413744ca2, type: 3}
      propertyPath: m_LocalRotation.w
      value: 1
      objectReference: {fileID: 0}
    - target: {fileID: 4849645874336816630, guid: 1cdb48c1561b012498f2a31413744ca2, type: 3}
      propertyPath: m_LocalRotation.x
      value: 0
      objectReference: {fileID: 0}
    - target: {fileID: 4849645874336816630, guid: 1cdb48c1561b012498f2a31413744ca2, type: 3}
      propertyPath: m_LocalRotation.y
      value: 0
      objectReference: {fileID: 0}
    - target: {fileID: 4849645874336816630, guid: 1cdb48c1561b012498f2a31413744ca2, type: 3}
      propertyPath: m_LocalRotation.z
      value: 0
      objectReference: {fileID: 0}
    - target: {fileID: 4849645874336816630, guid: 1cdb48c1561b012498f2a31413744ca2, type: 3}
      propertyPath: m_AnchoredPosition.x
      value: -722.3463
      objectReference: {fileID: 0}
    - target: {fileID: 4849645874336816630, guid: 1cdb48c1561b012498f2a31413744ca2, type: 3}
      propertyPath: m_AnchoredPosition.y
      value: -464
      objectReference: {fileID: 0}
    - target: {fileID: 4849645874336816630, guid: 1cdb48c1561b012498f2a31413744ca2, type: 3}
      propertyPath: m_LocalEulerAnglesHint.x
      value: 0
      objectReference: {fileID: 0}
    - target: {fileID: 4849645874336816630, guid: 1cdb48c1561b012498f2a31413744ca2, type: 3}
      propertyPath: m_LocalEulerAnglesHint.y
      value: 0
      objectReference: {fileID: 0}
    - target: {fileID: 4849645874336816630, guid: 1cdb48c1561b012498f2a31413744ca2, type: 3}
      propertyPath: m_LocalEulerAnglesHint.z
      value: 0
      objectReference: {fileID: 0}
    - target: {fileID: 5156369633943827373, guid: 1cdb48c1561b012498f2a31413744ca2, type: 3}
      propertyPath: m_Sprite
      value: 
      objectReference: {fileID: 21300000, guid: 17642677663074dbdb15ef9d13074dea, type: 3}
    - target: {fileID: 5691467370172451453, guid: 1cdb48c1561b012498f2a31413744ca2, type: 3}
      propertyPath: m_Name
      value: Rustbot Card Template
      objectReference: {fileID: 0}
    m_RemovedComponents: []
  m_SourcePrefab: {fileID: 100100000, guid: 1cdb48c1561b012498f2a31413744ca2, type: 3}
