%YAML 1.1
%TAG !u! tag:unity3d.com,2011:
--- !u!114 &11400000
MonoBehaviour:
  m_ObjectHideFlags: 0
  m_CorrespondingSourceObject: {fileID: 0}
  m_PrefabInstance: {fileID: 0}
  m_PrefabAsset: {fileID: 0}
  m_GameObject: {fileID: 0}
  m_Enabled: 1
  m_EditorHideFlags: 0
  m_Script: {fileID: 11500000, guid: 3c2ebad0750ab7049b94c6f98621318c, type: 3}
  m_Name: Encounter14
  m_EditorClassIdentifier: 
  type: 0
  cr: 0
  enemyPrefabs:
  - {fileID: 2782028922053635981, guid: d450558dd6b4cf245a8d14ef155b78a2, type: 3}
  enemyXPosition:
  - 4
