%YAML 1.1
%TAG !u! tag:unity3d.com,2011:
--- !u!114 &11400000
MonoBehaviour:
  m_ObjectHideFlags: 0
  m_CorrespondingSourceObject: {fileID: 0}
  m_PrefabInstance: {fileID: 0}
  m_PrefabAsset: {fileID: 0}
  m_GameObject: {fileID: 0}
  m_Enabled: 1
  m_EditorHideFlags: 0
  m_Script: {fileID: 11500000, guid: 3c2ebad0750ab7049b94c6f98621318c, type: 3}
  m_Name: Encounter9
  m_EditorClassIdentifier: 
  type: 0
  cr: 20
  enemyPrefabs:
  - {fileID: 7432355187271408336, guid: f03f8409bde9fb14f99b45ed77f21fc0, type: 3}
  - {fileID: 636183355200729485, guid: 4b89e48b12db02641ad1da8325e93b95, type: 3}
  - {fileID: 660515177883414284, guid: d9ce53326ae3c8843bc2d43d7ce94407, type: 3}
  - {fileID: 3890272258969599698, guid: 0ec30342523ecb64d9a402208df6aef6, type: 3}
  enemyXPosition:
  - 0.5
  - 2.5
  - 4.5
  - 6
