%YAML 1.1
%TAG !u! tag:unity3d.com,2011:
--- !u!114 &11400000
MonoBehaviour:
  m_ObjectHideFlags: 0
  m_CorrespondingSourceObject: {fileID: 0}
  m_PrefabInstance: {fileID: 0}
  m_PrefabAsset: {fileID: 0}
  m_GameObject: {fileID: 0}
  m_Enabled: 1
  m_EditorHideFlags: 0
  m_Script: {fileID: 11500000, guid: 3c2ebad0750ab7049b94c6f98621318c, type: 3}
  m_Name: Encounter6
  m_EditorClassIdentifier: 
  type: 0
  cr: 0
  enemyPrefabs:
  - {fileID: 660515177883414284, guid: d9ce53326ae3c8843bc2d43d7ce94407, type: 3}
  - {fileID: 660515177883414284, guid: d9ce53326ae3c8843bc2d43d7ce94407, type: 3}
  enemyXPosition:
  - 5.5
  - 3
