%YAML 1.1
%TAG !u! tag:unity3d.com,2011:
--- !u!114 &1339783124007272556
MonoBehaviour:
  m_ObjectHideFlags: 0
  m_CorrespondingSourceObject: {fileID: 0}
  m_PrefabInstance: {fileID: 0}
  m_PrefabAsset: {fileID: 0}
  m_GameObject: {fileID: 175293475421121222}
  m_Enabled: 1
  m_EditorHideFlags: 0
  m_Script: {fileID: 11500000, guid: 072226247b85ad34abbba5574efc71b1, type: 3}
  m_Name: 
  m_EditorClassIdentifier: 
  force_target_self: 0
  activation_requires_energy: 0
  turn_duration: 0
  effect_amount: 10
--- !u!114 &3070712463596260889
MonoBehaviour:
  m_ObjectHideFlags: 0
  m_CorrespondingSourceObject: {fileID: 0}
  m_PrefabInstance: {fileID: 0}
  m_PrefabAsset: {fileID: 0}
  m_GameObject: {fileID: 175293475421121222}
  m_Enabled: 1
  m_EditorHideFlags: 0
  m_Script: {fileID: 11500000, guid: 3295d0991f8d7f145a8ec8735356129e, type: 3}
  m_Name: 
  m_EditorClassIdentifier: 
  force_target_self: 0
  activation_requires_energy: 0
  turn_duration: 0
  effect_amount: 2
--- !u!114 &8418572448229928933
MonoBehaviour:
  m_ObjectHideFlags: 0
  m_CorrespondingSourceObject: {fileID: 0}
  m_PrefabInstance: {fileID: 0}
  m_PrefabAsset: {fileID: 0}
  m_GameObject: {fileID: 175293475421121222}
  m_Enabled: 1
  m_EditorHideFlags: 0
  m_Script: {fileID: 11500000, guid: a4e5de3716b887d40ba3f79aca890523, type: 3}
  m_Name: 
  m_EditorClassIdentifier: 
  force_target_self: 0
  activation_requires_energy: 0
  turn_duration: 0
  effect_amount: 1
--- !u!1001 &5517722183892230331
PrefabInstance:
  m_ObjectHideFlags: 0
  serializedVersion: 2
  m_Modification:
    m_TransformParent: {fileID: 0}
    m_Modifications:
    - target: {fileID: 1731737217224743763, guid: 1cdb48c1561b012498f2a31413744ca2, type: 3}
      propertyPath: m_text
      value: Energy Consume
      objectReference: {fileID: 0}
    - target: {fileID: 2629730262295816527, guid: 1cdb48c1561b012498f2a31413744ca2, type: 3}
      propertyPath: targetType
      value: 4
      objectReference: {fileID: 0}
    - target: {fileID: 2629730262295816527, guid: 1cdb48c1561b012498f2a31413744ca2, type: 3}
      propertyPath: defaultCost
      value: 1
      objectReference: {fileID: 0}
    - target: {fileID: 2629730262295816527, guid: 1cdb48c1561b012498f2a31413744ca2, type: 3}
      propertyPath: effects.Array.size
      value: 1
      objectReference: {fileID: 0}
    - target: {fileID: 2629730262295816527, guid: 1cdb48c1561b012498f2a31413744ca2, type: 3}
      propertyPath: energy_requirement
      value: 2
      objectReference: {fileID: 0}
    - target: {fileID: 2629730262295816527, guid: 1cdb48c1561b012498f2a31413744ca2, type: 3}
      propertyPath: energy_type_required
      value: 1
      objectReference: {fileID: 0}
    - target: {fileID: 2629730262295816527, guid: 1cdb48c1561b012498f2a31413744ca2, type: 3}
      propertyPath: effects.Array.data[0]
      value: 
      objectReference: {fileID: 1339783124007272556}
    - target: {fileID: 2629730262295816527, guid: 1cdb48c1561b012498f2a31413744ca2, type: 3}
      propertyPath: effects.Array.data[1]
      value: 
      objectReference: {fileID: 0}
    - target: {fileID: 2629730262295816527, guid: 1cdb48c1561b012498f2a31413744ca2, type: 3}
      propertyPath: effects.Array.data[2]
      value: 
      objectReference: {fileID: 0}
    - target: {fileID: 2629730262295816527, guid: 1cdb48c1561b012498f2a31413744ca2, type: 3}
      propertyPath: effects.Array.data[3]
      value: 
      objectReference: {fileID: 0}
    - target: {fileID: 2629730262295816527, guid: 1cdb48c1561b012498f2a31413744ca2, type: 3}
      propertyPath: energy_amount_consumed
      value: 2
      objectReference: {fileID: 0}
    - target: {fileID: 2629730262295816527, guid: 1cdb48c1561b012498f2a31413744ca2, type: 3}
      propertyPath: energy_effects.Array.size
      value: 2
      objectReference: {fileID: 0}
    - target: {fileID: 2629730262295816527, guid: 1cdb48c1561b012498f2a31413744ca2, type: 3}
      propertyPath: energy_effects.Array.data[0]
      value: 
      objectReference: {fileID: 8418572448229928933}
    - target: {fileID: 2629730262295816527, guid: 1cdb48c1561b012498f2a31413744ca2, type: 3}
      propertyPath: energy_effects.Array.data[1]
      value: 
      objectReference: {fileID: 3070712463596260889}
    - target: {fileID: 2629730262295816527, guid: 1cdb48c1561b012498f2a31413744ca2, type: 3}
      propertyPath: energy_effects.Array.data[2]
      value: 
      objectReference: {fileID: 0}
    - target: {fileID: 4849645874336816630, guid: 1cdb48c1561b012498f2a31413744ca2, type: 3}
      propertyPath: m_Pivot.x
      value: 0.5
      objectReference: {fileID: 0}
    - target: {fileID: 4849645874336816630, guid: 1cdb48c1561b012498f2a31413744ca2, type: 3}
      propertyPath: m_Pivot.y
      value: 0.5
      objectReference: {fileID: 0}
    - target: {fileID: 4849645874336816630, guid: 1cdb48c1561b012498f2a31413744ca2, type: 3}
      propertyPath: m_RootOrder
      value: 0
      objectReference: {fileID: 0}
    - target: {fileID: 4849645874336816630, guid: 1cdb48c1561b012498f2a31413744ca2, type: 3}
      propertyPath: m_AnchorMax.x
      value: 0.5
      objectReference: {fileID: 0}
    - target: {fileID: 4849645874336816630, guid: 1cdb48c1561b012498f2a31413744ca2, type: 3}
      propertyPath: m_AnchorMax.y
      value: 0.5
      objectReference: {fileID: 0}
    - target: {fileID: 4849645874336816630, guid: 1cdb48c1561b012498f2a31413744ca2, type: 3}
      propertyPath: m_AnchorMin.x
      value: 0.5
      objectReference: {fileID: 0}
    - target: {fileID: 4849645874336816630, guid: 1cdb48c1561b012498f2a31413744ca2, type: 3}
      propertyPath: m_AnchorMin.y
      value: 0.5
      objectReference: {fileID: 0}
    - target: {fileID: 4849645874336816630, guid: 1cdb48c1561b012498f2a31413744ca2, type: 3}
      propertyPath: m_SizeDelta.x
      value: 340
      objectReference: {fileID: 0}
    - target: {fileID: 4849645874336816630, guid: 1cdb48c1561b012498f2a31413744ca2, type: 3}
      propertyPath: m_SizeDelta.y
      value: 448
      objectReference: {fileID: 0}
    - target: {fileID: 4849645874336816630, guid: 1cdb48c1561b012498f2a31413744ca2, type: 3}
      propertyPath: m_LocalPosition.x
      value: 0
      objectReference: {fileID: 0}
    - target: {fileID: 4849645874336816630, guid: 1cdb48c1561b012498f2a31413744ca2, type: 3}
      propertyPath: m_LocalPosition.y
      value: 0
      objectReference: {fileID: 0}
    - target: {fileID: 4849645874336816630, guid: 1cdb48c1561b012498f2a31413744ca2, type: 3}
      propertyPath: m_LocalPosition.z
      value: 0
      objectReference: {fileID: 0}
    - target: {fileID: 4849645874336816630, guid: 1cdb48c1561b012498f2a31413744ca2, type: 3}
      propertyPath: m_LocalRotation.w
      value: 1
      objectReference: {fileID: 0}
    - target: {fileID: 4849645874336816630, guid: 1cdb48c1561b012498f2a31413744ca2, type: 3}
      propertyPath: m_LocalRotation.x
      value: 0
      objectReference: {fileID: 0}
    - target: {fileID: 4849645874336816630, guid: 1cdb48c1561b012498f2a31413744ca2, type: 3}
      propertyPath: m_LocalRotation.y
      value: 0
      objectReference: {fileID: 0}
    - target: {fileID: 4849645874336816630, guid: 1cdb48c1561b012498f2a31413744ca2, type: 3}
      propertyPath: m_LocalRotation.z
      value: 0
      objectReference: {fileID: 0}
    - target: {fileID: 4849645874336816630, guid: 1cdb48c1561b012498f2a31413744ca2, type: 3}
      propertyPath: m_AnchoredPosition.x
      value: -722.3463
      objectReference: {fileID: 0}
    - target: {fileID: 4849645874336816630, guid: 1cdb48c1561b012498f2a31413744ca2, type: 3}
      propertyPath: m_AnchoredPosition.y
      value: -474.82513
      objectReference: {fileID: 0}
    - target: {fileID: 4849645874336816630, guid: 1cdb48c1561b012498f2a31413744ca2, type: 3}
      propertyPath: m_LocalEulerAnglesHint.x
      value: 0
      objectReference: {fileID: 0}
    - target: {fileID: 4849645874336816630, guid: 1cdb48c1561b012498f2a31413744ca2, type: 3}
      propertyPath: m_LocalEulerAnglesHint.y
      value: 0
      objectReference: {fileID: 0}
    - target: {fileID: 4849645874336816630, guid: 1cdb48c1561b012498f2a31413744ca2, type: 3}
      propertyPath: m_LocalEulerAnglesHint.z
      value: 0
      objectReference: {fileID: 0}
    - target: {fileID: 4918997444711116299, guid: 1cdb48c1561b012498f2a31413744ca2, type: 3}
      propertyPath: m_Sprite
      value: 
      objectReference: {fileID: 21300000, guid: 9bce46ca9e071be4a998b1ea539e436b, type: 3}
    - target: {fileID: 5370105004220311269, guid: 1cdb48c1561b012498f2a31413744ca2, type: 3}
      propertyPath: m_text
      value: 'Deal 10 Damage

        Consume 2 Water: Draw A Card'
      objectReference: {fileID: 0}
    - target: {fileID: 5691467370172451453, guid: 1cdb48c1561b012498f2a31413744ca2, type: 3}
      propertyPath: m_Name
      value: TestCard5
      objectReference: {fileID: 0}
    - target: {fileID: 7264755641101006674, guid: 1cdb48c1561b012498f2a31413744ca2, type: 3}
      propertyPath: m_text
      value: 0
      objectReference: {fileID: 0}
    m_RemovedComponents: []
  m_SourcePrefab: {fileID: 100100000, guid: 1cdb48c1561b012498f2a31413744ca2, type: 3}
--- !u!1 &175293475421121222 stripped
GameObject:
  m_CorrespondingSourceObject: {fileID: 5691467370172451453, guid: 1cdb48c1561b012498f2a31413744ca2, type: 3}
  m_PrefabInstance: {fileID: 5517722183892230331}
  m_PrefabAsset: {fileID: 0}
