%YAML 1.1
%TAG !u! tag:unity3d.com,2011:
--- !u!95 &8146094688537636086
Animator:
  serializedVersion: 3
  m_ObjectHideFlags: 0
  m_CorrespondingSourceObject: {fileID: 0}
  m_PrefabInstance: {fileID: 0}
  m_PrefabAsset: {fileID: 0}
  m_GameObject: {fileID: 625351678297343432}
  m_Enabled: 1
  m_Avatar: {fileID: 0}
  m_Controller: {fileID: 9100000, guid: 66e2f8ebf6f40484a8c182bf4c4d82d8, type: 2}
  m_CullingMode: 0
  m_UpdateMode: 0
  m_ApplyRootMotion: 0
  m_LinearVelocityBlending: 0
  m_WarningMessage: 
  m_HasTransformHierarchy: 1
  m_AllowConstantClipSamplingOptimization: 1
  m_KeepAnimatorControllerStateOnDisable: 0
--- !u!1001 &2514339299236895203
PrefabInstance:
  m_ObjectHideFlags: 0
  serializedVersion: 2
  m_Modification:
    m_TransformParent: {fileID: 0}
    m_Modifications:
    - target: {fileID: 4602181649755715991, guid: 210e5ee6a9faecb4ba7948fb21b9835d, type: 3}
      propertyPath: m_Sprite
      value: 
      objectReference: {fileID: 21300000, guid: 19101ccdb4bdb42c1a1b79e435b23418, type: 3}
    - target: {fileID: 4602181649755715991, guid: 210e5ee6a9faecb4ba7948fb21b9835d, type: 3}
      propertyPath: m_Color.a
      value: 1
      objectReference: {fileID: 0}
    - target: {fileID: 4602181649755715991, guid: 210e5ee6a9faecb4ba7948fb21b9835d, type: 3}
      propertyPath: m_Color.b
      value: 1
      objectReference: {fileID: 0}
    - target: {fileID: 4602181649755715991, guid: 210e5ee6a9faecb4ba7948fb21b9835d, type: 3}
      propertyPath: m_Color.g
      value: 1
      objectReference: {fileID: 0}
    - target: {fileID: 4602181649755715991, guid: 210e5ee6a9faecb4ba7948fb21b9835d, type: 3}
      propertyPath: m_Color.r
      value: 1
      objectReference: {fileID: 0}
    - target: {fileID: 5645960368523602817, guid: 210e5ee6a9faecb4ba7948fb21b9835d, type: 3}
      propertyPath: m_text
      value: 'Name: Queen

        Speed: 6

        Health: 40'
      objectReference: {fileID: 0}
    - target: {fileID: 5820962955749318624, guid: 210e5ee6a9faecb4ba7948fb21b9835d, type: 3}
      propertyPath: m_Pivot.x
      value: 0.5
      objectReference: {fileID: 0}
    - target: {fileID: 5820962955749318624, guid: 210e5ee6a9faecb4ba7948fb21b9835d, type: 3}
      propertyPath: m_Pivot.y
      value: 0.5
      objectReference: {fileID: 0}
    - target: {fileID: 5820962955749318624, guid: 210e5ee6a9faecb4ba7948fb21b9835d, type: 3}
      propertyPath: m_RootOrder
      value: 0
      objectReference: {fileID: 0}
    - target: {fileID: 5820962955749318624, guid: 210e5ee6a9faecb4ba7948fb21b9835d, type: 3}
      propertyPath: m_AnchorMax.x
      value: 0
      objectReference: {fileID: 0}
    - target: {fileID: 5820962955749318624, guid: 210e5ee6a9faecb4ba7948fb21b9835d, type: 3}
      propertyPath: m_AnchorMax.y
      value: 0
      objectReference: {fileID: 0}
    - target: {fileID: 5820962955749318624, guid: 210e5ee6a9faecb4ba7948fb21b9835d, type: 3}
      propertyPath: m_AnchorMin.x
      value: 0
      objectReference: {fileID: 0}
    - target: {fileID: 5820962955749318624, guid: 210e5ee6a9faecb4ba7948fb21b9835d, type: 3}
      propertyPath: m_AnchorMin.y
      value: 0
      objectReference: {fileID: 0}
    - target: {fileID: 5820962955749318624, guid: 210e5ee6a9faecb4ba7948fb21b9835d, type: 3}
      propertyPath: m_SizeDelta.x
      value: 5.1944
      objectReference: {fileID: 0}
    - target: {fileID: 5820962955749318624, guid: 210e5ee6a9faecb4ba7948fb21b9835d, type: 3}
      propertyPath: m_SizeDelta.y
      value: 6.1638
      objectReference: {fileID: 0}
    - target: {fileID: 5820962955749318624, guid: 210e5ee6a9faecb4ba7948fb21b9835d, type: 3}
      propertyPath: m_LocalPosition.x
      value: 0
      objectReference: {fileID: 0}
    - target: {fileID: 5820962955749318624, guid: 210e5ee6a9faecb4ba7948fb21b9835d, type: 3}
      propertyPath: m_LocalPosition.y
      value: 0
      objectReference: {fileID: 0}
    - target: {fileID: 5820962955749318624, guid: 210e5ee6a9faecb4ba7948fb21b9835d, type: 3}
      propertyPath: m_LocalPosition.z
      value: 0
      objectReference: {fileID: 0}
    - target: {fileID: 5820962955749318624, guid: 210e5ee6a9faecb4ba7948fb21b9835d, type: 3}
      propertyPath: m_LocalRotation.w
      value: 1
      objectReference: {fileID: 0}
    - target: {fileID: 5820962955749318624, guid: 210e5ee6a9faecb4ba7948fb21b9835d, type: 3}
      propertyPath: m_LocalRotation.x
      value: -0
      objectReference: {fileID: 0}
    - target: {fileID: 5820962955749318624, guid: 210e5ee6a9faecb4ba7948fb21b9835d, type: 3}
      propertyPath: m_LocalRotation.y
      value: -0
      objectReference: {fileID: 0}
    - target: {fileID: 5820962955749318624, guid: 210e5ee6a9faecb4ba7948fb21b9835d, type: 3}
      propertyPath: m_LocalRotation.z
      value: -0
      objectReference: {fileID: 0}
    - target: {fileID: 5820962955749318624, guid: 210e5ee6a9faecb4ba7948fb21b9835d, type: 3}
      propertyPath: m_AnchoredPosition.x
      value: 30.070007
      objectReference: {fileID: 0}
    - target: {fileID: 5820962955749318624, guid: 210e5ee6a9faecb4ba7948fb21b9835d, type: 3}
      propertyPath: m_AnchoredPosition.y
      value: 7.1835327
      objectReference: {fileID: 0}
    - target: {fileID: 5820962955749318624, guid: 210e5ee6a9faecb4ba7948fb21b9835d, type: 3}
      propertyPath: m_LocalEulerAnglesHint.x
      value: 0
      objectReference: {fileID: 0}
    - target: {fileID: 5820962955749318624, guid: 210e5ee6a9faecb4ba7948fb21b9835d, type: 3}
      propertyPath: m_LocalEulerAnglesHint.y
      value: 0
      objectReference: {fileID: 0}
    - target: {fileID: 5820962955749318624, guid: 210e5ee6a9faecb4ba7948fb21b9835d, type: 3}
      propertyPath: m_LocalEulerAnglesHint.z
      value: 0
      objectReference: {fileID: 0}
    - target: {fileID: 9183743793931400593, guid: 210e5ee6a9faecb4ba7948fb21b9835d, type: 3}
      propertyPath: m_Name
      value: QueenBeeProfile Variant
      objectReference: {fileID: 0}
    m_RemovedComponents: []
  m_SourcePrefab: {fileID: 100100000, guid: 210e5ee6a9faecb4ba7948fb21b9835d, type: 3}
--- !u!224 &8227105318852920835 stripped
RectTransform:
  m_CorrespondingSourceObject: {fileID: 5820962955749318624, guid: 210e5ee6a9faecb4ba7948fb21b9835d, type: 3}
  m_PrefabInstance: {fileID: 2514339299236895203}
  m_PrefabAsset: {fileID: 0}
--- !u!1001 &6968311924068784101
PrefabInstance:
  m_ObjectHideFlags: 0
  serializedVersion: 2
  m_Modification:
    m_TransformParent: {fileID: 8227105318852920835}
    m_Modifications:
    - target: {fileID: -3610829904070738882, guid: dcc4a9aff6a6d954eae3af6278c27426, type: 3}
      propertyPath: m_Bounds.m_Center.x
      value: -0.1597808
      objectReference: {fileID: 0}
    - target: {fileID: -3610829904070738882, guid: dcc4a9aff6a6d954eae3af6278c27426, type: 3}
      propertyPath: m_Bounds.m_Center.y
      value: -0.000007390976
      objectReference: {fileID: 0}
    - target: {fileID: -3610829904070738882, guid: dcc4a9aff6a6d954eae3af6278c27426, type: 3}
      propertyPath: m_Bounds.m_Extent.x
      value: 0.57147294
      objectReference: {fileID: 0}
    - target: {fileID: -3610829904070738882, guid: dcc4a9aff6a6d954eae3af6278c27426, type: 3}
      propertyPath: m_Bounds.m_Extent.y
      value: 1.0487525
      objectReference: {fileID: 0}
    - target: {fileID: -3218172794213230273, guid: dcc4a9aff6a6d954eae3af6278c27426, type: 3}
      propertyPath: m_Bounds.m_Center.x
      value: -0.002248317
      objectReference: {fileID: 0}
    - target: {fileID: -3218172794213230273, guid: dcc4a9aff6a6d954eae3af6278c27426, type: 3}
      propertyPath: m_Bounds.m_Center.y
      value: 0.001123935
      objectReference: {fileID: 0}
    - target: {fileID: -3218172794213230273, guid: dcc4a9aff6a6d954eae3af6278c27426, type: 3}
      propertyPath: m_Bounds.m_Extent.x
      value: 0.36246032
      objectReference: {fileID: 0}
    - target: {fileID: -3218172794213230273, guid: dcc4a9aff6a6d954eae3af6278c27426, type: 3}
      propertyPath: m_Bounds.m_Extent.y
      value: 0.3701281
      objectReference: {fileID: 0}
    - target: {fileID: -1722106995925413331, guid: dcc4a9aff6a6d954eae3af6278c27426, type: 3}
      propertyPath: m_Name
      value: QueenBeeRigged
      objectReference: {fileID: 0}
    - target: {fileID: 432893220337559368, guid: dcc4a9aff6a6d954eae3af6278c27426, type: 3}
      propertyPath: m_RootOrder
      value: 2
      objectReference: {fileID: 0}
    - target: {fileID: 432893220337559368, guid: dcc4a9aff6a6d954eae3af6278c27426, type: 3}
      propertyPath: m_LocalScale.x
      value: 1.8
      objectReference: {fileID: 0}
    - target: {fileID: 432893220337559368, guid: dcc4a9aff6a6d954eae3af6278c27426, type: 3}
      propertyPath: m_LocalScale.y
      value: 1.8
      objectReference: {fileID: 0}
    - target: {fileID: 432893220337559368, guid: dcc4a9aff6a6d954eae3af6278c27426, type: 3}
      propertyPath: m_LocalPosition.x
      value: 0.04
      objectReference: {fileID: 0}
    - target: {fileID: 432893220337559368, guid: dcc4a9aff6a6d954eae3af6278c27426, type: 3}
      propertyPath: m_LocalPosition.y
      value: -1.2
      objectReference: {fileID: 0}
    - target: {fileID: 432893220337559368, guid: dcc4a9aff6a6d954eae3af6278c27426, type: 3}
      propertyPath: m_LocalPosition.z
      value: 0
      objectReference: {fileID: 0}
    - target: {fileID: 432893220337559368, guid: dcc4a9aff6a6d954eae3af6278c27426, type: 3}
      propertyPath: m_LocalRotation.w
      value: 1
      objectReference: {fileID: 0}
    - target: {fileID: 432893220337559368, guid: dcc4a9aff6a6d954eae3af6278c27426, type: 3}
      propertyPath: m_LocalRotation.x
      value: 0
      objectReference: {fileID: 0}
    - target: {fileID: 432893220337559368, guid: dcc4a9aff6a6d954eae3af6278c27426, type: 3}
      propertyPath: m_LocalRotation.y
      value: 0
      objectReference: {fileID: 0}
    - target: {fileID: 432893220337559368, guid: dcc4a9aff6a6d954eae3af6278c27426, type: 3}
      propertyPath: m_LocalRotation.z
      value: 0
      objectReference: {fileID: 0}
    - target: {fileID: 432893220337559368, guid: dcc4a9aff6a6d954eae3af6278c27426, type: 3}
      propertyPath: m_LocalEulerAnglesHint.x
      value: 0
      objectReference: {fileID: 0}
    - target: {fileID: 432893220337559368, guid: dcc4a9aff6a6d954eae3af6278c27426, type: 3}
      propertyPath: m_LocalEulerAnglesHint.y
      value: 0
      objectReference: {fileID: 0}
    - target: {fileID: 432893220337559368, guid: dcc4a9aff6a6d954eae3af6278c27426, type: 3}
      propertyPath: m_LocalEulerAnglesHint.z
      value: 0
      objectReference: {fileID: 0}
    - target: {fileID: 2335514745943682770, guid: dcc4a9aff6a6d954eae3af6278c27426, type: 3}
      propertyPath: m_Bounds.m_Center.x
      value: 0.010035008
      objectReference: {fileID: 0}
    - target: {fileID: 2335514745943682770, guid: dcc4a9aff6a6d954eae3af6278c27426, type: 3}
      propertyPath: m_Bounds.m_Center.y
      value: -0.00045615435
      objectReference: {fileID: 0}
    - target: {fileID: 2335514745943682770, guid: dcc4a9aff6a6d954eae3af6278c27426, type: 3}
      propertyPath: m_Bounds.m_Extent.y
      value: 0.46577626
      objectReference: {fileID: 0}
    - target: {fileID: 5532886787426353765, guid: dcc4a9aff6a6d954eae3af6278c27426, type: 3}
      propertyPath: m_Bounds.m_Center.x
      value: 0.02117291
      objectReference: {fileID: 0}
    - target: {fileID: 5532886787426353765, guid: dcc4a9aff6a6d954eae3af6278c27426, type: 3}
      propertyPath: m_Bounds.m_Center.y
      value: -0.0000032782555
      objectReference: {fileID: 0}
    - target: {fileID: 5532886787426353765, guid: dcc4a9aff6a6d954eae3af6278c27426, type: 3}
      propertyPath: m_Bounds.m_Extent.x
      value: 0.39547223
      objectReference: {fileID: 0}
    - target: {fileID: 5532886787426353765, guid: dcc4a9aff6a6d954eae3af6278c27426, type: 3}
      propertyPath: m_Bounds.m_Extent.y
      value: 0.40500486
      objectReference: {fileID: 0}
    m_RemovedComponents: []
  m_SourcePrefab: {fileID: 689971240926376523, guid: dcc4a9aff6a6d954eae3af6278c27426, type: 3}
--- !u!1 &625351678297343432 stripped
GameObject:
  m_CorrespondingSourceObject: {fileID: -1722106995925413331, guid: dcc4a9aff6a6d954eae3af6278c27426, type: 3}
  m_PrefabInstance: {fileID: 6968311924068784101}
  m_PrefabAsset: {fileID: 0}
